<?xml version="1.0" encoding="UTF-8" standalone="no"?>
<!-- Created with Inkscape (http://www.inkscape.org/) -->

<svg
   xmlns:dc="http://purl.org/dc/elements/1.1/"
   xmlns:cc="http://creativecommons.org/ns#"
   xmlns:rdf="http://www.w3.org/1999/02/22-rdf-syntax-ns#"
   xmlns:svg="http://www.w3.org/2000/svg"
   xmlns="http://www.w3.org/2000/svg"
   xmlns:sodipodi="http://sodipodi.sourceforge.net/DTD/sodipodi-0.dtd"
   xmlns:inkscape="http://www.inkscape.org/namespaces/inkscape"
   width="210mm"
   height="297mm"
   viewBox="0 0 210 297"
   version="1.1"
   id="svg8"
   inkscape:version="0.92.2 2405546, 2018-03-11"
   sodipodi:docname="arara.svg">
  <defs
     id="defs2" />
  <sodipodi:namedview
     id="base"
     pagecolor="#ffffff"
     bordercolor="#666666"
     borderopacity="1.0"
     inkscape:pageopacity="0.0"
     inkscape:pageshadow="2"
     inkscape:zoom="0.35"
     inkscape:cx="-87.142857"
     inkscape:cy="560"
     inkscape:document-units="mm"
     inkscape:current-layer="layer1"
     showgrid="false"
     inkscape:window-width="1366"
     inkscape:window-height="746"
     inkscape:window-x="0"
     inkscape:window-y="22"
     inkscape:window-maximized="1" />
  <metadata
     id="metadata5">
    <rdf:RDF>
      <cc:Work
         rdf:about="">
        <dc:format>image/svg+xml</dc:format>
        <dc:type
           rdf:resource="http://purl.org/dc/dcmitype/StillImage" />
        <dc:title></dc:title>
      </cc:Work>
    </rdf:RDF>
  </metadata>
  <g
     inkscape:label="Camada 1"
     inkscape:groupmode="layer"
     id="layer1">
    <g
       transform="translate(0.05963767,30.487789)"
       id="g931">
      <path
         style="opacity:1;fill:#0095ad;fill-opacity:1;stroke:#000000;stroke-width:3.78468919;stroke-linecap:round;stroke-linejoin:round;stroke-miterlimit:4;stroke-dasharray:none;stroke-dashoffset:0;stroke-opacity:1"
         d="m 158.34726,114.76818 c 20.92519,1.73821 10.47691,70.9489 -6.57482,71.46565 -20.92519,-1.73815 -10.47687,-70.94884 6.57482,-71.46565 z"
         id="path3223"
         inkscape:connector-curvature="0"
         sodipodi:nodetypes="ccc"
         inkscape:export-filename="/home/siqueira/Pictures/flusp.png"
         inkscape:export-xdpi="293.84"
         inkscape:export-ydpi="293.84" />
      <path
         style="opacity:1;fill:#382810;fill-opacity:1;stroke:#000000;stroke-width:2.16267943;stroke-linecap:round;stroke-linejoin:round;stroke-miterlimit:4;stroke-dasharray:none;stroke-dashoffset:0;stroke-opacity:1"
         d="m 50.046038,73.973011 c 26.606176,-0.42673 32.489223,-5.78177 32.489223,19.37145 -22.363523,12.298129 -35.116289,-0.54243 -35.225476,-16.62547 0,-1.52127 1.220365,-2.74598 2.736253,-2.74598 z"
         id="path3225"
         inkscape:connector-curvature="0"
         sodipodi:nodetypes="cccc"
         inkscape:export-filename="/home/siqueira/Pictures/flusp.png"
         inkscape:export-xdpi="293.84"
         inkscape:export-ydpi="293.84" />
      <path
         style="opacity:1;fill:#0095ad;fill-opacity:1;stroke:#000000;stroke-width:3.78468919;stroke-linecap:round;stroke-linejoin:round;stroke-miterlimit:4;stroke-dasharray:none;stroke-dashoffset:0;stroke-opacity:1"
         d="m 106.581,107.7187 h 29.14333 c 31.95269,-10.893429 32.19679,47.93018 14.17692,68.80151 -18.01992,20.87139 -50.780224,16.99342 -63.455549,0 C 72.172739,157.38482 79.180456,98.354891 106.581,107.7187 Z"
         id="path3227"
         inkscape:connector-curvature="0"
         sodipodi:nodetypes="cczac"
         inkscape:export-filename="/home/siqueira/Pictures/flusp.png"
         inkscape:export-xdpi="293.84"
         inkscape:export-ydpi="293.84" />
      <path
         style="opacity:1;fill:#0095ad;fill-opacity:1;stroke:#000000;stroke-width:3.78468919;stroke-linecap:round;stroke-linejoin:round;stroke-miterlimit:4;stroke-dasharray:none;stroke-dashoffset:0;stroke-opacity:1"
         d="m 86.015019,113.03284 c 17.540251,1.45698 -6.458362,73.14715 -20.751686,73.58032 -17.540287,-1.45698 6.458368,-73.14715 20.751686,-73.58032 z"
         id="path3229"
         inkscape:connector-curvature="0"
         sodipodi:nodetypes="ccc"
         inkscape:export-filename="/home/siqueira/Pictures/flusp.png"
         inkscape:export-xdpi="293.84"
         inkscape:export-ydpi="293.84" />
      <path
         style="opacity:1;fill:#0095ad;fill-opacity:1;stroke:#000000;stroke-width:3.78468919;stroke-linecap:round;stroke-linejoin:round;stroke-miterlimit:4;stroke-dasharray:none;stroke-dashoffset:0;stroke-opacity:1"
         d="m 168.85338,61.473151 c 0.98776,8.90757 -0.12773,24.32197 -2.77658,33.31534 -4.66608,15.842049 -14.09026,22.491239 -25.15765,15.275679 -4.20102,6.86272 -8.66164,2.96044 -11.16478,0 -2.73559,5.8868 -8.06541,4.45517 -11.16479,0 -1.71974,3.95033 -6.3651,6.18536 -11.16484,0 -2.15325,5.15127 -8.781341,4.92246 -11.164783,0 -16.227578,1.94297 -12.736374,-3.5424 -14.879683,-14.304849 -0.270733,-1.35942 -0.04485,-10.48149 -0.207041,-11.89492 -0.864395,-7.53173 -10.252602,-10.92793 -10.377667,-16.99667 1.140179,-67.42475957 92.804464,-52.7688 98.057814,-5.39458 z"
         id="path3231"
         inkscape:connector-curvature="0"
         sodipodi:nodetypes="sscccccsscs"
         inkscape:export-filename="/home/siqueira/Pictures/flusp.png"
         inkscape:export-xdpi="293.84"
         inkscape:export-ydpi="293.84" />
      <path
         style="opacity:1;fill:#0095ad;fill-opacity:1;stroke:#000000;stroke-width:3.78468919;stroke-linecap:round;stroke-linejoin:round;stroke-miterlimit:4;stroke-dasharray:none;stroke-dashoffset:0;stroke-opacity:1"
         d="m 85.289455,85.832931 a 12.944131,12.990043 0 0 0 -7.688166,11.85294 12.944131,12.990043 0 0 0 12.944355,12.990279 12.944131,12.990043 0 0 0 11.009006,-6.18872 12.944131,12.990043 0 0 1 -5.256198,1.13702 12.944131,12.990043 0 0 1 -12.944089,-12.990009 12.944131,12.990043 0 0 1 1.935092,-6.80151 z"
         id="path3233"
         inkscape:connector-curvature="0" />
      <ellipse
         ry="14.124097"
         rx="14.074178"
         style="opacity:1;fill:#0095ad;fill-opacity:1;stroke:none;stroke-width:3.78468919;stroke-linecap:round;stroke-linejoin:round;stroke-miterlimit:4;stroke-dasharray:none;stroke-dashoffset:0;stroke-opacity:1"
         id="circle3235"
         cx="92.394699"
         cy="96.139572" />
      <path
         inkscape:connector-curvature="0"
         id="path3239"
         d="m 92.794675,99.288611 a 9.6349849,9.5927267 88.947337 0 0 -0.111659,10.489399 9.6349849,9.5927267 88.947337 0 0 13.242214,2.9633 9.6349849,9.5927267 88.947337 0 0 4.43273,-8.26969 9.6349849,9.5927267 88.947337 0 1 -2.83661,2.81044 9.6349849,9.5927267 88.947337 0 1 -13.241941,-2.96319 9.6349849,9.5927267 88.947337 0 1 -1.484734,-5.030259 z"
         style="opacity:1;fill:#00c5d4;fill-opacity:1;stroke:#00ffff;stroke-width:3.78468919;stroke-linecap:round;stroke-linejoin:round;stroke-miterlimit:4;stroke-dasharray:none;stroke-dashoffset:0;stroke-opacity:1" />
      <ellipse
         cy="141.25868"
         cx="30.577633"
         id="ellipse3241"
         style="opacity:1;fill:#0095ad;fill-opacity:1;stroke:none;stroke-width:3.78470397;stroke-linecap:round;stroke-linejoin:round;stroke-miterlimit:4;stroke-dasharray:none;stroke-dashoffset:0;stroke-opacity:1"
         transform="matrix(0.84286389,-0.53812682,0.53482808,0.8449609,0,0)"
         rx="10.442676"
         ry="10.463689" />
      <path
         style="opacity:1;fill:#0095ad;fill-opacity:1;stroke:#00ffff;stroke-width:3.78468871;stroke-linecap:round;stroke-linejoin:round;stroke-miterlimit:4;stroke-dasharray:none;stroke-dashoffset:0;stroke-opacity:1"
         d="m 68.322462,145.55512 a 3.5313459,8.5993736 17.231622 0 0 -2.816939,8.92815 3.5313459,8.5993736 17.231622 0 0 3.867684,3.98142 3.5313459,8.5993736 17.231622 0 0 3.747252,-6.56117 3.5313459,8.5993736 17.231622 0 1 -1.740825,2.08358 3.5313459,8.5993736 17.231622 0 1 -3.867605,-3.98137 3.5313459,8.5993736 17.231622 0 1 0.810433,-4.45061 z"
         id="path3245"
         inkscape:connector-curvature="0" />
      <ellipse
         ry="8.1596022"
         rx="5.9655981"
         transform="matrix(0.76780665,-0.64068163,-0.04597729,0.99894249,0,0)"
         style="opacity:1;fill:#0095ad;fill-opacity:1;stroke:none;stroke-width:4.40695;stroke-linecap:round;stroke-linejoin:round;stroke-miterlimit:4;stroke-dasharray:none;stroke-dashoffset:0;stroke-opacity:1"
         id="ellipse3247"
         cx="104.62332"
         cy="216.83304" />
      <path
         inkscape:connector-curvature="0"
         id="path3251"
         d="m 72.53569,135.64076 a 3.5313459,8.5993736 17.231622 0 0 -2.81694,8.92814 3.5313459,8.5993736 17.231622 0 0 3.867685,3.98143 3.5313459,8.5993736 17.231622 0 0 3.747252,-6.56117 3.5313459,8.5993736 17.231622 0 1 -1.740825,2.08358 3.5313459,8.5993736 17.231622 0 1 -3.867606,-3.98137 3.5313459,8.5993736 17.231622 0 1 0.810434,-4.45061 z"
         style="opacity:1;fill:#0095ad;fill-opacity:1;stroke:#00ffff;stroke-width:3.78468871;stroke-linecap:round;stroke-linejoin:round;stroke-miterlimit:4;stroke-dasharray:none;stroke-dashoffset:0;stroke-opacity:1" />
      <ellipse
         cy="210.17175"
         cx="109.71179"
         id="ellipse3253"
         style="opacity:1;fill:#0095ad;fill-opacity:1;stroke:none;stroke-width:4.40695;stroke-linecap:round;stroke-linejoin:round;stroke-miterlimit:4;stroke-dasharray:none;stroke-dashoffset:0;stroke-opacity:1"
         transform="matrix(0.76780665,-0.64068163,-0.04597729,0.99894249,0,0)"
         rx="5.9655981"
         ry="8.1596022" />
      <path
         inkscape:connector-curvature="0"
         id="path3257"
         d="m 64.496818,161.31413 a 3.5306913,8.6009691 10.877161 0 0 -1.810503,9.18708 3.5306913,8.6009691 10.877161 0 0 4.28474,3.52527 3.5306913,8.6009691 10.877161 0 0 2.99724,-6.93854 3.5306913,8.6009691 10.877161 0 1 -1.499235,2.26487 3.5306913,8.6009691 10.877161 0 1 -4.284648,-3.52518 3.5306913,8.6009691 10.877161 0 1 0.312406,-4.5135 z"
         style="opacity:1;fill:#0095ad;fill-opacity:1;stroke:#00ffff;stroke-width:3.78468895;stroke-linecap:round;stroke-linejoin:round;stroke-miterlimit:4;stroke-dasharray:none;stroke-dashoffset:0;stroke-opacity:1" />
      <ellipse
         cy="220.49402"
         cx="76.096779"
         id="ellipse3259"
         style="opacity:1;fill:#0095ad;fill-opacity:1;stroke:none;stroke-width:4.40779877;stroke-linecap:round;stroke-linejoin:round;stroke-miterlimit:4;stroke-dasharray:none;stroke-dashoffset:0;stroke-opacity:1"
         transform="matrix(0.69180765,-0.72208183,0.06496142,0.99788778,0,0)"
         rx="5.9679413"
         ry="8.1595421" />
      <path
         style="opacity:1;fill:#0095ad;fill-opacity:1;stroke:#00ffff;stroke-width:3.78468871;stroke-linecap:round;stroke-linejoin:round;stroke-miterlimit:4;stroke-dasharray:none;stroke-dashoffset:0;stroke-opacity:1"
         d="m 66.724327,168.29981 a 3.5313459,8.5993736 17.231622 0 0 -2.816941,8.92815 3.5313459,8.5993736 17.231622 0 0 3.867686,3.98142 3.5313459,8.5993736 17.231622 0 0 3.747251,-6.56118 3.5313459,8.5993736 17.231622 0 1 -1.740825,2.08359 3.5313459,8.5993736 17.231622 0 1 -3.867605,-3.98137 3.5313459,8.5993736 17.231622 0 1 0.810434,-4.45061 z"
         id="path3263"
         inkscape:connector-curvature="0" />
      <ellipse
         ry="8.1596022"
         rx="5.9655981"
         transform="matrix(0.76780665,-0.64068163,-0.04597729,0.99894249,0,0)"
         style="opacity:1;fill:#0095ad;fill-opacity:1;stroke:none;stroke-width:4.40695;stroke-linecap:round;stroke-linejoin:round;stroke-miterlimit:4;stroke-dasharray:none;stroke-dashoffset:0;stroke-opacity:1"
         id="ellipse3265"
         cx="103.87666"
         cy="239.12292" />
      <path
         inkscape:connector-curvature="0"
         id="path3269"
         d="m 69.920583,165.38379 a 3.5313459,8.5993736 17.231622 0 0 -2.816941,8.92815 3.5313459,8.5993736 17.231622 0 0 3.867686,3.98143 3.5313459,8.5993736 17.231622 0 0 3.747251,-6.56118 3.5313459,8.5993736 17.231622 0 1 -1.740826,2.08359 3.5313459,8.5993736 17.231622 0 1 -3.867604,-3.98137 3.5313459,8.5993736 17.231622 0 1 0.810434,-4.45062 z"
         style="opacity:1;fill:#0095ad;fill-opacity:1;stroke:#00ffff;stroke-width:3.78468871;stroke-linecap:round;stroke-linejoin:round;stroke-miterlimit:4;stroke-dasharray:none;stroke-dashoffset:0;stroke-opacity:1" />
      <ellipse
         cy="238.86374"
         cx="108.02396"
         id="ellipse3271"
         style="opacity:1;fill:#0095ad;fill-opacity:1;stroke:none;stroke-width:4.40695;stroke-linecap:round;stroke-linejoin:round;stroke-miterlimit:4;stroke-dasharray:none;stroke-dashoffset:0;stroke-opacity:1"
         transform="matrix(0.76780665,-0.64068163,-0.04597729,0.99894249,0,0)"
         rx="5.9655981"
         ry="8.1596022" />
      <path
         inkscape:connector-curvature="0"
         id="path3275"
         d="m 68.758342,152.99087 a 3.5313459,8.5993736 17.231622 0 0 -2.816941,8.92814 3.5313459,8.5993736 17.231622 0 0 3.867685,3.98143 3.5313459,8.5993736 17.231622 0 0 3.747251,-6.56117 3.5313459,8.5993736 17.231622 0 1 -1.740826,2.08358 3.5313459,8.5993736 17.231622 0 1 -3.867603,-3.98137 3.5313459,8.5993736 17.231622 0 1 0.810434,-4.45061 z"
         style="opacity:1;fill:#0095ad;fill-opacity:1;stroke:#00ffff;stroke-width:3.78468871;stroke-linecap:round;stroke-linejoin:round;stroke-miterlimit:4;stroke-dasharray:none;stroke-dashoffset:0;stroke-opacity:1" />
      <ellipse
         cy="224.95261"
         cx="105.67723"
         id="ellipse3277"
         style="opacity:1;fill:#0095ad;fill-opacity:1;stroke:none;stroke-width:4.40695;stroke-linecap:round;stroke-linejoin:round;stroke-miterlimit:4;stroke-dasharray:none;stroke-dashoffset:0;stroke-opacity:1"
         transform="matrix(0.76780665,-0.64068163,-0.04597729,0.99894249,0,0)"
         rx="5.9655981"
         ry="8.1596022" />
      <path
         style="opacity:1;fill:#0095ad;fill-opacity:1;stroke:#00ffff;stroke-width:3.78468871;stroke-linecap:round;stroke-linejoin:round;stroke-miterlimit:4;stroke-dasharray:none;stroke-dashoffset:0;stroke-opacity:1"
         d="m 75.005535,147.01313 a 3.5313459,8.5993736 17.231622 0 0 -2.816941,8.92815 3.5313459,8.5993736 17.231622 0 0 3.867686,3.98142 3.5313459,8.5993736 17.231622 0 0 3.74725,-6.56117 3.5313459,8.5993736 17.231622 0 1 -1.740826,2.08358 3.5313459,8.5993736 17.231622 0 1 -3.867603,-3.98137 3.5313459,8.5993736 17.231622 0 1 0.810434,-4.45061 z"
         id="path3281"
         inkscape:connector-curvature="0" />
      <ellipse
         ry="8.1596022"
         rx="5.9655981"
         transform="matrix(0.76780665,-0.64068163,-0.04597729,0.99894249,0,0)"
         style="opacity:1;fill:#0095ad;fill-opacity:1;stroke:none;stroke-width:4.40695;stroke-linecap:round;stroke-linejoin:round;stroke-miterlimit:4;stroke-dasharray:none;stroke-dashoffset:0;stroke-opacity:1"
         id="ellipse3283"
         cx="113.76595"
         cy="224.15637" />
      <path
         style="opacity:1;fill:#0095ad;fill-opacity:1;stroke:#00ffff;stroke-width:3.78468871;stroke-linecap:round;stroke-linejoin:round;stroke-miterlimit:4;stroke-dasharray:none;stroke-dashoffset:0;stroke-opacity:1"
         d="m 75.731946,155.76106 a 3.5313459,8.5993736 17.231622 0 0 -2.81694,8.92815 3.5313459,8.5993736 17.231622 0 0 3.867685,3.98143 3.5313459,8.5993736 17.231622 0 0 3.747251,-6.56118 3.5313459,8.5993736 17.231622 0 1 -1.740826,2.08358 3.5313459,8.5993736 17.231622 0 1 -3.867604,-3.98136 3.5313459,8.5993736 17.231622 0 1 0.810434,-4.45062 z"
         id="path3287"
         inkscape:connector-curvature="0" />
      <ellipse
         ry="8.1596022"
         rx="5.9655981"
         transform="matrix(0.76780665,-0.64068163,-0.04597729,0.99894249,0,0)"
         style="opacity:1;fill:#0095ad;fill-opacity:1;stroke:none;stroke-width:4.40695;stroke-linecap:round;stroke-linejoin:round;stroke-miterlimit:4;stroke-dasharray:none;stroke-dashoffset:0;stroke-opacity:1"
         id="ellipse3289"
         cx="115.29517"
         cy="233.89432" />
      <path
         inkscape:connector-curvature="0"
         id="path3293"
         d="m 79.50935,144.38875 a 3.5313459,8.5993736 17.231622 0 0 -2.816941,8.92815 3.5313459,8.5993736 17.231622 0 0 3.867685,3.98142 3.5313459,8.5993736 17.231622 0 0 3.747252,-6.56117 3.5313459,8.5993736 17.231622 0 1 -1.740827,2.08358 3.5313459,8.5993736 17.231622 0 1 -3.867603,-3.98137 3.5313459,8.5993736 17.231622 0 1 0.810434,-4.45061 z"
         style="opacity:1;fill:#0095ad;fill-opacity:1;stroke:#00ffff;stroke-width:3.78468871;stroke-linecap:round;stroke-linejoin:round;stroke-miterlimit:4;stroke-dasharray:none;stroke-dashoffset:0;stroke-opacity:1" />
      <ellipse
         cy="225.33661"
         cx="119.70245"
         id="ellipse3295"
         style="opacity:1;fill:#0095ad;fill-opacity:1;stroke:none;stroke-width:4.40695;stroke-linecap:round;stroke-linejoin:round;stroke-miterlimit:4;stroke-dasharray:none;stroke-dashoffset:0;stroke-opacity:1"
         transform="matrix(0.76780665,-0.64068163,-0.04597729,0.99894249,0,0)"
         rx="5.9655981"
         ry="8.1596022" />
      <path
         inkscape:connector-curvature="0"
         id="path3299"
         d="m 76.458358,128.78822 a 3.5313459,8.5993736 17.231622 0 0 -2.81694,8.92815 3.5313459,8.5993736 17.231622 0 0 3.867685,3.98142 3.5313459,8.5993736 17.231622 0 0 3.74725,-6.56116 3.5313459,8.5993736 17.231622 0 1 -1.740825,2.08358 3.5313459,8.5993736 17.231622 0 1 -3.867604,-3.98137 3.5313459,8.5993736 17.231622 0 1 0.810434,-4.45062 z"
         style="opacity:1;fill:#0095ad;fill-opacity:1;stroke:#00ffff;stroke-width:3.78468871;stroke-linecap:round;stroke-linejoin:round;stroke-miterlimit:4;stroke-dasharray:none;stroke-dashoffset:0;stroke-opacity:1" />
      <ellipse
         cy="206.4455"
         cx="114.59759"
         id="ellipse3301"
         style="opacity:1;fill:#0095ad;fill-opacity:1;stroke:none;stroke-width:4.40695;stroke-linecap:round;stroke-linejoin:round;stroke-miterlimit:4;stroke-dasharray:none;stroke-dashoffset:0;stroke-opacity:1"
         transform="matrix(0.76780665,-0.64068163,-0.04597729,0.99894249,0,0)"
         rx="5.9655981"
         ry="8.1596022" />
      <path
         style="opacity:1;fill:#0095ad;fill-opacity:1;stroke:#00ffff;stroke-width:3.78468871;stroke-linecap:round;stroke-linejoin:round;stroke-miterlimit:4;stroke-dasharray:none;stroke-dashoffset:0;stroke-opacity:1"
         d="m 80.381009,131.99582 a 3.5313459,8.5993736 17.231622 0 0 -2.816941,8.92815 3.5313459,8.5993736 17.231622 0 0 3.867686,3.98142 3.5313459,8.5993736 17.231622 0 0 3.747251,-6.56117 3.5313459,8.5993736 17.231622 0 1 -1.740825,2.08358 3.5313459,8.5993736 17.231622 0 1 -3.867606,-3.98137 3.5313459,8.5993736 17.231622 0 1 0.810435,-4.45061 z"
         id="path3305"
         inkscape:connector-curvature="0" />
      <ellipse
         ry="8.1596022"
         rx="5.9655981"
         transform="matrix(0.76780665,-0.64068163,-0.04597729,0.99894249,0,0)"
         style="opacity:1;fill:#0095ad;fill-opacity:1;stroke:none;stroke-width:4.40695;stroke-linecap:round;stroke-linejoin:round;stroke-miterlimit:4;stroke-dasharray:none;stroke-dashoffset:0;stroke-opacity:1"
         id="ellipse3307"
         cx="120.11049"
         cy="213.19223" />
      <path
         style="opacity:1;fill:#0095ad;fill-opacity:1;stroke:#00ffff;stroke-width:3.78468871;stroke-linecap:round;stroke-linejoin:round;stroke-miterlimit:4;stroke-dasharray:none;stroke-dashoffset:0;stroke-opacity:1"
         d="m 81.543314,121.06084 a 3.5313459,8.5993736 17.231622 0 0 -2.81694,8.92815 3.5313459,8.5993736 17.231622 0 0 3.867685,3.98142 3.5313459,8.5993736 17.231622 0 0 3.747252,-6.56116 3.5313459,8.5993736 17.231622 0 1 -1.740826,2.08358 3.5313459,8.5993736 17.231622 0 1 -3.867603,-3.98137 3.5313459,8.5993736 17.231622 0 1 0.810432,-4.45062 z"
         id="path3311"
         inkscape:connector-curvature="0" />
      <ellipse
         ry="8.1596022"
         rx="5.9655981"
         transform="matrix(0.76780665,-0.64068163,-0.04597729,0.99894249,0,0)"
         style="opacity:1;fill:#0095ad;fill-opacity:1;stroke:none;stroke-width:4.40695;stroke-linecap:round;stroke-linejoin:round;stroke-miterlimit:4;stroke-dasharray:none;stroke-dashoffset:0;stroke-opacity:1"
         id="ellipse3313"
         cx="121.00307"
         cy="202.81815" />
      <ellipse
         style="opacity:1;fill:#ffb500;fill-opacity:1;stroke:none;stroke-width:2.16267943;stroke-linecap:round;stroke-linejoin:round;stroke-miterlimit:4;stroke-dasharray:none;stroke-dashoffset:0;stroke-opacity:1"
         id="ellipse3317"
         cx="111.92519"
         cy="50.607723"
         rx="26.790199"
         ry="27.46842"
         inkscape:export-filename="/home/siqueira/Pictures/flusp.png"
         inkscape:export-xdpi="293.84"
         inkscape:export-ydpi="293.84" />
      <ellipse
         cy="52.794704"
         cx="109.16482"
         id="ellipse3319"
         style="opacity:1;fill:#ffffff;fill-opacity:1;stroke:none;stroke-width:2.16267943;stroke-linecap:round;stroke-linejoin:round;stroke-miterlimit:4;stroke-dasharray:none;stroke-dashoffset:0;stroke-opacity:1"
         inkscape:export-filename="/home/siqueira/Pictures/flusp.png"
         inkscape:export-xdpi="293.84"
         inkscape:export-ydpi="293.84"
         rx="20.536947"
         ry="20.609789" />
      <path
         style="opacity:1;fill:#382810;fill-opacity:1;stroke:#000000;stroke-width:2.16267943;stroke-linecap:round;stroke-linejoin:round;stroke-miterlimit:4;stroke-dasharray:none;stroke-dashoffset:0;stroke-opacity:1"
         d="m 76.249056,54.870871 c 10.334336,21.127 3.849126,35.56711 -18.409183,29.84926 -5.411999,-1.51434 -10.048748,-8.80205 -13.636988,-6.83043 -4.40791,2.42207 -6.90743,15.32682 -6.90743,15.32682 -0.455987,1.2162 -2.337225,-1.04607 -2.337225,-2.34548 -3.46518,-34.53805 27.723595,-35.06698 41.290826,-36.00017 z"
         id="path3321"
         inkscape:connector-curvature="0"
         sodipodi:nodetypes="ccsscc"
         inkscape:export-filename="/home/siqueira/Pictures/flusp.png"
         inkscape:export-xdpi="293.84"
         inkscape:export-ydpi="293.84" />
      <path
         sodipodi:nodetypes="ccc"
         inkscape:connector-curvature="0"
         id="path3323"
         d="m 124.16046,46.499551 c 7.01302,8.62005 -1.12932,21.84417 -12.96038,22.23894 3.19379,-7.79585 6.82185,-16.75373 12.96038,-22.23894 z"
         style="opacity:0.7;fill:#cccccc;fill-opacity:1;stroke:none;stroke-width:0.14305224px;stroke-linecap:butt;stroke-linejoin:miter;stroke-opacity:1"
         inkscape:export-filename="/home/siqueira/Pictures/flusp.png"
         inkscape:export-xdpi="293.84"
         inkscape:export-ydpi="293.84" />
      <path
         style="fill:#9c9c9c;stroke:none;stroke-width:0.14305224px;stroke-linecap:butt;stroke-linejoin:miter;stroke-opacity:1"
         d="m 123.85226,46.499551 c 4.95057,10.06885 -1.58798,22.16641 -12.96037,22.23894 3.19377,-7.79585 6.82184,-16.75373 12.96037,-22.23894 z"
         id="path3325"
         inkscape:connector-curvature="0"
         sodipodi:nodetypes="ccc"
         inkscape:export-filename="/home/siqueira/Pictures/flusp.png"
         inkscape:export-xdpi="293.84"
         inkscape:export-ydpi="293.84" />
      <ellipse
         style="opacity:1;fill:#e37404;fill-opacity:1;stroke:#000000;stroke-width:1.62200963;stroke-linecap:round;stroke-linejoin:round;stroke-miterlimit:4;stroke-dasharray:none;stroke-dashoffset:0;stroke-opacity:1"
         id="ellipse3327"
         cx="109.16482"
         cy="52.794704"
         inkscape:export-filename="/home/siqueira/Pictures/flusp.png"
         inkscape:export-xdpi="293.84"
         inkscape:export-ydpi="293.84"
         rx="15.306727"
         ry="15.361018" />
      <ellipse
         style="opacity:1;fill:#000000;fill-opacity:1;stroke:none;stroke-width:2.16267943;stroke-linecap:round;stroke-linejoin:round;stroke-miterlimit:4;stroke-dasharray:none;stroke-dashoffset:0;stroke-opacity:1"
         id="ellipse3329"
         cx="109.16482"
         cy="52.794704"
         rx="11.115424"
         ry="11.461484"
         inkscape:export-filename="/home/siqueira/Pictures/flusp.png"
         inkscape:export-xdpi="293.84"
         inkscape:export-ydpi="293.84" />
      <path
         style="opacity:1;fill:#ffffff;fill-opacity:1;stroke:none;stroke-width:2.16267943;stroke-linecap:round;stroke-linejoin:round;stroke-miterlimit:4;stroke-dasharray:none;stroke-dashoffset:0;stroke-opacity:1"
         d="m 118.31292,48.705981 c -0.68065,0.76939 -0.91778,-0.8359 -2.57899,-2.61495 -1.7066,-1.82764 -3.51769,-1.63828 -3.11586,-2.79002 1.09917,-1.73155 6.69745,3.83349 5.69485,5.40497 z"
         id="path3331"
         inkscape:connector-curvature="0"
         sodipodi:nodetypes="cscc"
         inkscape:export-filename="/home/siqueira/Pictures/flusp.png"
         inkscape:export-xdpi="293.84"
         inkscape:export-ydpi="293.84" />
      <path
         style="fill:none;stroke:#693a20;stroke-width:3.78468919;stroke-linecap:butt;stroke-linejoin:miter;stroke-miterlimit:4;stroke-dasharray:none;stroke-opacity:1"
         d="m 109.07443,190.00373 c 10.64238,-2.86174 14.9041,12.19549 4.03648,15.11779"
         id="path3333"
         inkscape:connector-curvature="0"
         sodipodi:nodetypes="cc"
         inkscape:export-filename="/home/siqueira/Pictures/flusp.png"
         inkscape:export-xdpi="293.84"
         inkscape:export-ydpi="293.84" />
      <path
         sodipodi:nodetypes="cc"
         inkscape:connector-curvature="0"
         id="path3335"
         d="m 126.8366,190.00373 c 10.64238,-2.86174 14.9041,12.19549 4.03644,15.11779"
         style="fill:none;stroke:#693a20;stroke-width:3.78468919;stroke-linecap:butt;stroke-linejoin:miter;stroke-miterlimit:4;stroke-dasharray:none;stroke-opacity:1"
         inkscape:export-filename="/home/siqueira/Pictures/flusp.png"
         inkscape:export-xdpi="293.84"
         inkscape:export-ydpi="293.84" />
      <path
         style="fill:none;stroke:#ffffff;stroke-width:2.43301439;stroke-linecap:round;stroke-linejoin:round;stroke-miterlimit:4;stroke-dasharray:none;stroke-opacity:1"
         d="m 102.55781,63.939641 c 6.73724,4.25371 19.02371,1.23738 19.56136,-11.51083"
         id="path3337"
         inkscape:connector-curvature="0"
         sodipodi:nodetypes="cc"
         inkscape:export-filename="/home/siqueira/Pictures/flusp.png"
         inkscape:export-xdpi="293.84"
         inkscape:export-ydpi="293.84" />
      <path
         style="fill:none;stroke:#000000;stroke-width:2.16267943;stroke-linecap:round;stroke-linejoin:round;stroke-miterlimit:4;stroke-dasharray:none;stroke-opacity:1"
         d="m 80.702924,68.133171 c 1.024722,5.8023 -0.311392,13.69494 3.632085,16.91272"
         id="path3339"
         inkscape:connector-curvature="0"
         sodipodi:nodetypes="cc"
         inkscape:export-filename="/home/siqueira/Pictures/flusp.png"
         inkscape:export-xdpi="293.84"
         inkscape:export-ydpi="293.84" />
      <path
         style="opacity:1;fill:#0095ad;fill-opacity:1;stroke:#00ffff;stroke-width:3.78468919;stroke-linecap:round;stroke-linejoin:round;stroke-miterlimit:4;stroke-dasharray:none;stroke-dashoffset:0;stroke-opacity:1"
         d="m 104.85664,106.55677 a 9.6345793,9.5931309 87.084609 0 0 1.66971,10.35528 9.6345793,9.5931309 87.084609 0 0 13.55162,0.65726 9.6345793,9.5931309 87.084609 0 0 2.96488,-8.90638 9.6345793,9.5931309 87.084609 0 1 -2.31834,3.25413 9.6345793,9.5931309 87.084609 0 1 -13.55134,-0.65721 9.6345793,9.5931309 87.084609 0 1 -2.31653,-4.70308 z"
         id="path3341"
         inkscape:connector-curvature="0" />
      <ellipse
         ry="10.457614"
         rx="10.448756"
         transform="matrix(0.73882097,-0.67390175,0.67077258,0.74166309,0,0)"
         style="opacity:1;fill:#0095ad;fill-opacity:1;stroke:none;stroke-width:3.78470683;stroke-linecap:round;stroke-linejoin:round;stroke-miterlimit:4;stroke-dasharray:none;stroke-dashoffset:0;stroke-opacity:1"
         id="ellipse3343"
         cx="11.567993"
         cy="157.02187" />
      <path
         style="opacity:1;fill:#0095ad;fill-opacity:1;stroke:#00ffff;stroke-width:3.78468919;stroke-linecap:round;stroke-linejoin:round;stroke-miterlimit:4;stroke-dasharray:none;stroke-dashoffset:0;stroke-opacity:1"
         d="m 133.07968,105.15986 a 9.6348406,9.5928697 88.055783 0 0 0.72984,10.46443 9.6348406,9.5928697 88.055783 0 0 13.43689,1.88424 9.6348406,9.5928697 88.055783 0 0 3.75521,-8.60082 9.6348406,9.5928697 88.055783 0 1 -2.60204,3.03042 9.6348406,9.5928697 88.055783 0 1 -13.43661,-1.88425 9.6348406,9.5928697 88.055783 0 1 -1.88329,-4.89402 z"
         id="path3347"
         inkscape:connector-curvature="0" />
      <ellipse
         ry="10.460901"
         rx="10.445467"
         transform="matrix(0.7967659,-0.60428809,0.60100959,0.79924181,0,0)"
         style="opacity:1;fill:#0095ad;fill-opacity:1;stroke:none;stroke-width:3.78470516;stroke-linecap:round;stroke-linejoin:round;stroke-miterlimit:4;stroke-dasharray:none;stroke-dashoffset:0;stroke-opacity:1"
         id="ellipse3349"
         cx="48.43446"
         cy="171.84117" />
      <path
         inkscape:connector-curvature="0"
         id="path3353"
         d="m 120.85169,109.45193 a 9.6334282,9.594277 84.825226 0 0 4.04871,9.67121 9.6334282,9.594277 84.825226 0 0 13.32579,-2.5583 9.6334282,9.594277 84.825226 0 0 0.79542,-9.35623 9.6334282,9.594277 84.825226 0 1 -1.49106,3.70988 9.6334282,9.594277 84.825226 0 1 -13.32552,2.55819 9.6334282,9.594277 84.825226 0 1 -3.35334,-4.02475 z"
         style="opacity:1;fill:#0095ad;fill-opacity:1;stroke:#00ffff;stroke-width:3.78468919;stroke-linecap:round;stroke-linejoin:round;stroke-miterlimit:4;stroke-dasharray:none;stroke-dashoffset:0;stroke-opacity:1" />
      <ellipse
         cy="169.03809"
         cx="-17.120481"
         id="ellipse3355"
         style="opacity:1;fill:#0095ad;fill-opacity:1;stroke:none;stroke-width:3.78470469;stroke-linecap:round;stroke-linejoin:round;stroke-miterlimit:4;stroke-dasharray:none;stroke-dashoffset:0;stroke-opacity:1"
         transform="matrix(0.55978887,-0.82863528,0.82639351,0.56309304,0,0)"
         rx="10.457365"
         ry="10.448996" />
      <path
         style="opacity:1;fill:#0095ad;fill-opacity:1;stroke:#00ffff;stroke-width:3.78468895;stroke-linecap:round;stroke-linejoin:round;stroke-miterlimit:4;stroke-dasharray:none;stroke-dashoffset:0;stroke-opacity:1"
         d="m 80.194136,137.6296 a 3.5303343,8.6018389 4.8580666 0 0 -0.835896,9.32736 3.5303343,8.6018389 4.8580666 0 0 4.631006,3.05262 3.5303343,8.6018389 4.8580666 0 0 2.25209,-7.21686 3.5303343,8.6018389 4.8580666 0 1 -1.253106,2.4108 3.5303343,8.6018389 4.8580666 0 1 -4.630908,-3.05257 3.5303343,8.6018389 4.8580666 0 1 -0.163186,-4.52135 z"
         id="path3359"
         inkscape:connector-curvature="0" />
      <ellipse
         ry="8.1588326"
         rx="5.9701424"
         transform="matrix(0.61192091,-0.79091896,0.16938145,0.98555057,0,0)"
         style="opacity:1;fill:#0095ad;fill-opacity:1;stroke:none;stroke-width:4.40842056;stroke-linecap:round;stroke-linejoin:round;stroke-miterlimit:4;stroke-dasharray:none;stroke-dashoffset:0;stroke-opacity:1"
         id="ellipse3361"
         cx="78.617775"
         cy="206.27426" />
      <path
         inkscape:connector-curvature="0"
         id="path3365"
         d="m 81.650532,127.15872 a 8.6020336,3.5302542 88.367912 0 0 0.225291,9.3623 8.6020336,3.5302542 88.367912 0 0 4.946553,2.50494 8.6020336,3.5302542 88.367912 0 0 1.420636,-7.42686 8.6020336,3.5302542 88.367912 0 1 -0.972112,2.53804 8.6020336,3.5302542 88.367912 0 1 -4.94645,-2.50489 8.6020336,3.5302542 88.367912 0 1 -0.673918,-4.47353 z"
         style="opacity:1;fill:#0095ad;fill-opacity:1;stroke:#00ffff;stroke-width:3.78468895;stroke-linecap:round;stroke-linejoin:round;stroke-miterlimit:4;stroke-dasharray:none;stroke-dashoffset:0;stroke-opacity:1" />
      <ellipse
         cy="190.14224"
         cx="61.091835"
         id="ellipse3367"
         style="opacity:1;fill:#0095ad;fill-opacity:1;stroke:none;stroke-width:4.40885925;stroke-linecap:round;stroke-linejoin:round;stroke-miterlimit:4;stroke-dasharray:none;stroke-dashoffset:0;stroke-opacity:1"
         transform="matrix(0.51824082,-0.85523473,0.27988978,0.96003214,0,0)"
         rx="5.9723845"
         ry="8.1573935" />
      <path
         sodipodi:nodetypes="cc"
         inkscape:connector-curvature="0"
         id="path3371"
         d="m 111.53315,190.63369 c 7.78703,-7.82212 18.98495,3.07402 11.03307,11.06168"
         style="fill:none;stroke:#693a20;stroke-width:3.78468919;stroke-linecap:butt;stroke-linejoin:miter;stroke-miterlimit:4;stroke-dasharray:none;stroke-opacity:1"
         inkscape:export-filename="/home/siqueira/Pictures/flusp.png"
         inkscape:export-xdpi="293.84"
         inkscape:export-ydpi="293.84" />
      <path
         style="fill:none;stroke:#693a20;stroke-width:3.78468919;stroke-linecap:butt;stroke-linejoin:miter;stroke-miterlimit:4;stroke-dasharray:none;stroke-opacity:1"
         d="m 130.1171,190.63369 c 7.78705,-7.82212 18.98496,3.07402 11.03307,11.06168"
         id="path3373"
         inkscape:connector-curvature="0"
         sodipodi:nodetypes="cc"
         inkscape:export-filename="/home/siqueira/Pictures/flusp.png"
         inkscape:export-xdpi="293.84"
         inkscape:export-ydpi="293.84" />
    </g>
  </g>
</svg>
